[
  {
    "id": 1,
    "title": "Real Steel",
    "dateAdded": "30-02-2013",
    "R18": false,
    "type": "movie"
  },
  {
    "id": 2,
    "title": "Pasific Rim",
    "dateAdded": "30-02-2013",
    "R18": false,
    "type": "movie"
  },
  {
    "id": 3,
    "title": "You Are The Apple of My Eye",
    "dateAdded": "30-02-2013",
    "R18": false,
    "type": "movie"
  },
  {
    "id": 4,
    "title": "5 centimeters per second",
    "dateAdded": "30-02-2013",
    "R18": false,
    "type": "movie"
  },
  {
    "id": 5,
    "title": "Spirited Away",
    "dateAdded": "30-02-2013",
    "R18": false,
    "type": "movie"
  }
]